Toys Amazon Project
…
We can see that brands such as LEGO, Schleich, The Puppet Company tend to get good reviews.

Sentiment Analysis

Another major factor to affect review ratings are the reviews themselves. If a customer expresses positive sentiment in their reviews, then they are more likely to leave a positive rating.

To understand what sentiment a review expresses, we need to perform a sentiment analysis. This process basically breaks down each review into individual words, each assgined a sentiment score from negative sentiment to positive sentiment. The score of each review is then added up to represent the overall sentiment of a review.

I used the PerformanceAnalytics and tidytext packages for this analysis.

An example of the first 10 products review sentiment is shown below:

## # A tibble: 8,503 x 2
##    uniq_id                          sentiment
##    <chr>                                <dbl>
##  1 0016eb63fa6c7a5e8930bc7732b13116     -0.5 
##  2 00182f9b6081e58fea1fe76bc13eb022      1.8 
##  3 0034d77b68130bba71aca6e733c7e1ac      2.5 
##  4 0039295c7fcefba10d5fc333eff806d3      1.59
##  5 0046d3f852f55ee28b4a049ed387a946      2   
##  6 00472dbbf1dc16092d18716f5dbc8f06      1   
##  7 004c8d86fa377d80c1c52102562b8f13      2   
##  8 0058ca8040260a2a4e185d12a62d2c6e     -3   
##  9 005f14204fa56f34e37b84ce88e067db      3   
## 10 0062979f8ad156917910fdac30031924      2   
## #  with 8,493 more rows
…
